\babel@toc {ngerman}{}
\contentsline {chapter}{\nonumberline Abbildungsverzeichnis}{10}{chapter*.14}% 
\contentsline {chapter}{\nonumberline Tabellenverzeichnis}{11}{chapter*.16}% 
\contentsline {chapter}{\nonumberline Quelltexte}{12}{chapter*.18}% 
\contentsline {chapter}{\numberline {1}Einleitung}{15}{chapter.1}% 
\contentsline {chapter}{\numberline {2}Projektmanagement}{16}{chapter.2}% 
\contentsline {section}{\numberline {2.1}Metainformationen}{16}{section.2.1}% 
\contentsline {subsection}{\numberline {2.1.1}Team}{16}{subsection.2.1.1}% 
\contentsline {subsection}{\numberline {2.1.2}Betreuer}{16}{subsection.2.1.2}% 
\contentsline {subsection}{\numberline {2.1.3}Partner}{16}{subsection.2.1.3}% 
\contentsline {subsection}{\numberline {2.1.4}Ansprechpartner}{16}{subsection.2.1.4}% 
\contentsline {section}{\numberline {2.2}Vorerhebungen}{16}{section.2.2}% 
\contentsline {subsection}{\numberline {2.2.1}Projektzieleplan}{16}{subsection.2.2.1}% 
\contentsline {subsection}{\numberline {2.2.2}Projektumfeld}{17}{subsection.2.2.2}% 
\contentsline {subsection}{\numberline {2.2.3}Risikoanalyse}{17}{subsection.2.2.3}% 
\contentsline {section}{\numberline {2.3}Pflichtenheft}{17}{section.2.3}% 
\contentsline {subsection}{\numberline {2.3.1}Zielbestimmung}{17}{subsection.2.3.1}% 
\contentsline {subsection}{\numberline {2.3.2}Produkteinsatz und Umgebung}{17}{subsection.2.3.2}% 
\contentsline {subsection}{\numberline {2.3.3}Funktionalitäten}{18}{subsection.2.3.3}% 
\contentsline {subsection}{\numberline {2.3.4}Testszenarien und Testfälle}{18}{subsection.2.3.4}% 
\contentsline {subsection}{\numberline {2.3.5}Liefervereinbarung}{18}{subsection.2.3.5}% 
\contentsline {section}{\numberline {2.4}Planung}{19}{section.2.4}% 
\contentsline {subsection}{\numberline {2.4.1}Projektstrukturplan}{19}{subsection.2.4.1}% 
\contentsline {subsection}{\numberline {2.4.2}Meilensteine}{19}{subsection.2.4.2}% 
\contentsline {subsection}{\numberline {2.4.3}Gantt-Chart}{19}{subsection.2.4.3}% 
\contentsline {subsection}{\numberline {2.4.4}Abnahmekriterien}{19}{subsection.2.4.4}% 
\contentsline {subsection}{\numberline {2.4.5}Pläne zur Evaluierung}{19}{subsection.2.4.5}% 
\contentsline {subsection}{\numberline {2.4.6}Ergänzungen und zu klärende Punkte}{19}{subsection.2.4.6}% 
\contentsline {chapter}{\numberline {3}Vorstellung des Produktes}{20}{chapter.3}% 
\contentsline {chapter}{\numberline {4}Eingesetzte Technologien}{21}{chapter.4}% 
\contentsline {chapter}{\numberline {5}Problemanalyse}{22}{chapter.5}% 
\contentsline {section}{\numberline {5.1}USE-Case-Analyse}{22}{section.5.1}% 
\contentsline {section}{\numberline {5.2}Domain-Class-Modelling}{23}{section.5.2}% 
\contentsline {section}{\numberline {5.3}User-Interface-Design}{23}{section.5.3}% 
\contentsline {chapter}{\numberline {6}Systementwurf}{24}{chapter.6}% 
\contentsline {section}{\numberline {6.1}Architektur}{24}{section.6.1}% 
\contentsline {subsection}{\numberline {6.1.1}Design der Komponenten}{24}{subsection.6.1.1}% 
\contentsline {subsection}{\numberline {6.1.2}Benutzerschnittstellen}{25}{subsection.6.1.2}% 
\contentsline {subsection}{\numberline {6.1.3}Datenhaltunskonzept}{25}{subsection.6.1.3}% 
\contentsline {subsection}{\numberline {6.1.4}Konzept für Ausnahmebehandlung}{25}{subsection.6.1.4}% 
\contentsline {subsection}{\numberline {6.1.5}Sicherheitskonzept}{25}{subsection.6.1.5}% 
\contentsline {subsection}{\numberline {6.1.6}Design der Testumgebung}{26}{subsection.6.1.6}% 
\contentsline {subsection}{\numberline {6.1.7}Desing der Ausführungsumgebung}{26}{subsection.6.1.7}% 
\contentsline {section}{\numberline {6.2}Detailentwurf}{26}{section.6.2}% 
\contentsline {chapter}{\numberline {7}Implementierung}{28}{chapter.7}% 
\contentsline {chapter}{\numberline {8}Deployment}{29}{chapter.8}% 
\contentsline {chapter}{\numberline {9}Tests}{30}{chapter.9}% 
\contentsline {section}{\numberline {9.1}Systemtests}{30}{section.9.1}% 
\contentsline {section}{\numberline {9.2}Akzeptanztests}{30}{section.9.2}% 
\contentsline {chapter}{\numberline {10}Projektevaluation}{31}{chapter.10}% 
\contentsline {chapter}{\numberline {11}Benutzerhandbuch}{32}{chapter.11}% 
\contentsline {chapter}{\numberline {12}Betriebswirtschaftlicher Kontext}{33}{chapter.12}% 
\contentsline {chapter}{\numberline {13}Zusammenfassung}{34}{chapter.13}% 
\contentsline {chapter}{\numberline {14}Beispielkapitel}{35}{chapter.14}% 
\contentsline {section}{\numberline {14.1}Beispiele zitieren}{35}{section.14.1}% 
\contentsline {subsection}{\numberline {14.1.1}Beispiele Abbildungen}{36}{subsection.14.1.1}% 
\contentsline {subsubsection}{\nonumberline Beispiele Tabellen}{37}{section*.24}% 
\contentsline {section}{\numberline {14.2}Beispiele Listen}{37}{section.14.2}% 
\contentsline {section}{\numberline {14.3}Beispiel Codesequenz}{39}{section.14.3}% 
\contentsline {subsection}{\numberline {14.3.1}Quicksort in JAVA}{39}{subsection.14.3.1}% 
\contentsline {section}{\numberline {14.4}Beispieltext}{41}{section.14.4}% 
\contentsline {chapter}{\nonumberline Literaturverzeichnis}{44}{chapter*.27}% 
\contentsline {chapter}{\numberline {A}Anhang-Kapitel}{46}{appendix.A}% 
\contentsline {section}{\numberline {A.1}Anhang-Section}{46}{section.A.1}% 
