\relax 
\providecommand\hyper@newdestlabel[2]{}
\providecommand*\new@tpo@label[2]{}
\bbl@beforestart
\catcode `"\active 
\providecommand\HyperFirstAtBeginDocument{\AtBeginDocument}
\HyperFirstAtBeginDocument{\ifx\hyper@anchor\@undefined
\global\let\oldcontentsline\contentsline
\gdef\contentsline#1#2#3#4{\oldcontentsline{#1}{#2}{#3}}
\global\let\oldnewlabel\newlabel
\gdef\newlabel#1#2{\newlabelxx{#1}#2}
\gdef\newlabelxx#1#2#3#4#5#6{\oldnewlabel{#1}{{#2}{#3}}}
\AtEndDocument{\ifx\hyper@anchor\@undefined
\let\contentsline\oldcontentsline
\let\newlabel\oldnewlabel
\fi}
\fi}
\global\let\hyper@last\relax 
\gdef\HyperFirstAtBeginDocument#1{#1}
\providecommand\HyField@AuxAddToFields[1]{}
\providecommand\HyField@AuxAddToCoFields[2]{}
\providecommand\BKM@entry[2]{}
\babel@aux{ngerman}{}
\BKM@entry{id=1,dest={636861707465722A2E3134},srcline={183}}{416262696C64756E67737665727A656963686E6973}
\@writefile{toc}{\contentsline {chapter}{\nonumberline Abbildungsverzeichnis}{10}{chapter*.14}\protected@file@percent }
\BKM@entry{id=2,dest={636861707465722A2E3136},srcline={185}}{546162656C6C656E7665727A656963686E6973}
\@writefile{toc}{\contentsline {chapter}{\nonumberline Tabellenverzeichnis}{11}{chapter*.16}\protected@file@percent }
\BKM@entry{id=3,dest={636861707465722A2E3138},srcline={187}}{5175656C6C7465787465}
\@writefile{toc}{\contentsline {chapter}{\nonumberline Quelltexte}{12}{chapter*.18}\protected@file@percent }
\@writefile{lof}{\addvspace {10\p@ }}
\@writefile{lot}{\addvspace {10\p@ }}
\@writefile{lol}{\addvspace {10\p@ }}
\BKM@entry{id=4,dest={636861707465722E31},srcline={8}}{45696E6C656974756E67}
\@writefile{toc}{\contentsline {chapter}{\numberline {1}Einleitung}{15}{chapter.1}\protected@file@percent }
\@writefile{lof}{\addvspace {10\p@ }}
\@writefile{lot}{\addvspace {10\p@ }}
\@writefile{lol}{\addvspace {10\p@ }}
\BKM@entry{id=5,dest={636861707465722E32},srcline={10}}{50726F6A656B746D616E6167656D656E74}
\BKM@entry{id=6,dest={73656374696F6E2E322E31},srcline={12}}{4D657461696E666F726D6174696F6E656E}
\BKM@entry{id=7,dest={73756273656374696F6E2E322E312E31},srcline={13}}{5465616D}
\BKM@entry{id=8,dest={73756273656374696F6E2E322E312E32},srcline={14}}{4265747265756572}
\BKM@entry{id=9,dest={73756273656374696F6E2E322E312E33},srcline={15}}{506172746E6572}
\BKM@entry{id=10,dest={73756273656374696F6E2E322E312E34},srcline={16}}{416E737072656368706172746E6572}
\BKM@entry{id=11,dest={73656374696F6E2E322E32},srcline={17}}{566F726572686562756E67656E}
\BKM@entry{id=12,dest={73756273656374696F6E2E322E322E31},srcline={18}}{50726F6A656B747A69656C65706C616E}
\BKM@entry{id=13,dest={73756273656374696F6E2E322E322E32},srcline={20}}{50726F6A656B74756D66656C64}
\@writefile{toc}{\contentsline {chapter}{\numberline {2}Projektmanagement}{16}{chapter.2}\protected@file@percent }
\@writefile{lof}{\addvspace {10\p@ }}
\@writefile{lot}{\addvspace {10\p@ }}
\@writefile{lol}{\addvspace {10\p@ }}
\@writefile{toc}{\contentsline {section}{\numberline {2.1}Metainformationen}{16}{section.2.1}\protected@file@percent }
\@writefile{toc}{\contentsline {subsection}{\numberline {2.1.1}Team}{16}{subsection.2.1.1}\protected@file@percent }
\@writefile{toc}{\contentsline {subsection}{\numberline {2.1.2}Betreuer}{16}{subsection.2.1.2}\protected@file@percent }
\@writefile{toc}{\contentsline {subsection}{\numberline {2.1.3}Partner}{16}{subsection.2.1.3}\protected@file@percent }
\@writefile{toc}{\contentsline {subsection}{\numberline {2.1.4}Ansprechpartner}{16}{subsection.2.1.4}\protected@file@percent }
\@writefile{toc}{\contentsline {section}{\numberline {2.2}Vorerhebungen}{16}{section.2.2}\protected@file@percent }
\@writefile{toc}{\contentsline {subsection}{\numberline {2.2.1}Projektzieleplan}{16}{subsection.2.2.1}\protected@file@percent }
\BKM@entry{id=14,dest={73756273656374696F6E2E322E322E33},srcline={27}}{526973696B6F616E616C797365}
\BKM@entry{id=15,dest={73656374696F6E2E322E33},srcline={31}}{50666C69636874656E68656674}
\BKM@entry{id=16,dest={73756273656374696F6E2E322E332E31},srcline={32}}{5A69656C62657374696D6D756E67}
\BKM@entry{id=17,dest={73756273656374696F6E2E322E332E32},srcline={39}}{50726F64756B7465696E7361747A20756E6420556D676562756E67}
\@writefile{toc}{\contentsline {subsection}{\numberline {2.2.2}Projektumfeld}{17}{subsection.2.2.2}\protected@file@percent }
\@writefile{toc}{\contentsline {subsection}{\numberline {2.2.3}Risikoanalyse}{17}{subsection.2.2.3}\protected@file@percent }
\@writefile{toc}{\contentsline {section}{\numberline {2.3}Pflichtenheft}{17}{section.2.3}\protected@file@percent }
\@writefile{toc}{\contentsline {subsection}{\numberline {2.3.1}Zielbestimmung}{17}{subsection.2.3.1}\protected@file@percent }
\@writefile{toc}{\contentsline {subsection}{\numberline {2.3.2}Produkteinsatz und Umgebung}{17}{subsection.2.3.2}\protected@file@percent }
\BKM@entry{id=18,dest={73756273656374696F6E2E322E332E33},srcline={46}}{46756E6B74696F6E616C69745C33343474656E}
\BKM@entry{id=19,dest={73756273656374696F6E2E322E332E34},srcline={59}}{54657374737A656E617269656E20756E642054657374665C3334346C6C65}
\BKM@entry{id=20,dest={73756273656374696F6E2E322E332E35},srcline={66}}{4C696566657276657265696E626172756E67}
\BKM@entry{id=21,dest={73656374696F6E2E322E34},srcline={72}}{506C616E756E67}
\BKM@entry{id=22,dest={73756273656374696F6E2E322E342E31},srcline={73}}{50726F6A656B74737472756B747572706C616E}
\BKM@entry{id=23,dest={73756273656374696F6E2E322E342E32},srcline={74}}{4D65696C656E737465696E65}
\BKM@entry{id=24,dest={73756273656374696F6E2E322E342E33},srcline={75}}{47616E74742D4368617274}
\BKM@entry{id=25,dest={73756273656374696F6E2E322E342E34},srcline={76}}{41626E61686D656B726974657269656E}
\BKM@entry{id=26,dest={73756273656374696F6E2E322E342E35},srcline={77}}{506C5C3334346E65207A7572204576616C75696572756E67}
\BKM@entry{id=27,dest={73756273656374696F6E2E322E342E36},srcline={78}}{4572675C3334346E7A756E67656E20756E64207A75206B6C5C33343472656E64652050756E6B7465}
\@writefile{toc}{\contentsline {subsection}{\numberline {2.3.3}Funktionalitäten}{18}{subsection.2.3.3}\protected@file@percent }
\@writefile{toc}{\contentsline {subsection}{\numberline {2.3.4}Testszenarien und Testfälle}{18}{subsection.2.3.4}\protected@file@percent }
\@writefile{toc}{\contentsline {subsection}{\numberline {2.3.5}Liefervereinbarung}{18}{subsection.2.3.5}\protected@file@percent }
\@writefile{toc}{\contentsline {section}{\numberline {2.4}Planung}{19}{section.2.4}\protected@file@percent }
\@writefile{toc}{\contentsline {subsection}{\numberline {2.4.1}Projektstrukturplan}{19}{subsection.2.4.1}\protected@file@percent }
\@writefile{toc}{\contentsline {subsection}{\numberline {2.4.2}Meilensteine}{19}{subsection.2.4.2}\protected@file@percent }
\@writefile{toc}{\contentsline {subsection}{\numberline {2.4.3}Gantt-Chart}{19}{subsection.2.4.3}\protected@file@percent }
\@writefile{toc}{\contentsline {subsection}{\numberline {2.4.4}Abnahmekriterien}{19}{subsection.2.4.4}\protected@file@percent }
\@writefile{toc}{\contentsline {subsection}{\numberline {2.4.5}Pläne zur Evaluierung}{19}{subsection.2.4.5}\protected@file@percent }
\@writefile{toc}{\contentsline {subsection}{\numberline {2.4.6}Ergänzungen und zu klärende Punkte}{19}{subsection.2.4.6}\protected@file@percent }
\BKM@entry{id=28,dest={636861707465722E33},srcline={80}}{566F727374656C6C756E67206465732050726F64756B746573}
\@writefile{toc}{\contentsline {chapter}{\numberline {3}Vorstellung des Produktes}{20}{chapter.3}\protected@file@percent }
\@writefile{lof}{\addvspace {10\p@ }}
\@writefile{lot}{\addvspace {10\p@ }}
\@writefile{lol}{\addvspace {10\p@ }}
\BKM@entry{id=29,dest={636861707465722E34},srcline={83}}{45696E67657365747A746520546563686E6F6C6F6769656E}
\@writefile{toc}{\contentsline {chapter}{\numberline {4}Eingesetzte Technologien}{21}{chapter.4}\protected@file@percent }
\@writefile{lof}{\addvspace {10\p@ }}
\@writefile{lot}{\addvspace {10\p@ }}
\@writefile{lol}{\addvspace {10\p@ }}
\BKM@entry{id=30,dest={636861707465722E35},srcline={91}}{50726F626C656D616E616C797365}
\BKM@entry{id=31,dest={73656374696F6E2E352E31},srcline={92}}{5553452D436173652D416E616C797365}
\BKM@entry{id=32,dest={73656374696F6E2E352E32},srcline={115}}{446F6D61696E2D436C6173732D4D6F64656C6C696E67}
\@writefile{toc}{\contentsline {chapter}{\numberline {5}Problemanalyse}{22}{chapter.5}\protected@file@percent }
\@writefile{lof}{\addvspace {10\p@ }}
\@writefile{lot}{\addvspace {10\p@ }}
\@writefile{lol}{\addvspace {10\p@ }}
\@writefile{toc}{\contentsline {section}{\numberline {5.1}USE-Case-Analyse}{22}{section.5.1}\protected@file@percent }
\BKM@entry{id=33,dest={73656374696F6E2E352E33},srcline={122}}{557365722D496E746572666163652D44657369676E}
\@writefile{toc}{\contentsline {section}{\numberline {5.2}Domain-Class-Modelling}{23}{section.5.2}\protected@file@percent }
\@writefile{toc}{\contentsline {section}{\numberline {5.3}User-Interface-Design}{23}{section.5.3}\protected@file@percent }
\BKM@entry{id=34,dest={636861707465722E36},srcline={129}}{53797374656D656E7477757266}
\BKM@entry{id=35,dest={73656374696F6E2E362E31},srcline={131}}{417263686974656B747572}
\BKM@entry{id=36,dest={73756273656374696F6E2E362E312E31},srcline={133}}{44657369676E20646572204B6F6D706F6E656E74656E}
\BKM@entry{id=37,dest={73756273656374696F6E2E362E312E32},srcline={151}}{42656E75747A65727363686E6974747374656C6C656E}
\@writefile{toc}{\contentsline {chapter}{\numberline {6}Systementwurf}{24}{chapter.6}\protected@file@percent }
\@writefile{lof}{\addvspace {10\p@ }}
\@writefile{lot}{\addvspace {10\p@ }}
\@writefile{lol}{\addvspace {10\p@ }}
\@writefile{toc}{\contentsline {section}{\numberline {6.1}Architektur}{24}{section.6.1}\protected@file@percent }
\@writefile{toc}{\contentsline {subsection}{\numberline {6.1.1}Design der Komponenten}{24}{subsection.6.1.1}\protected@file@percent }
\BKM@entry{id=38,dest={73756273656374696F6E2E362E312E33},srcline={157}}{446174656E68616C74756E736B6F6E7A657074}
\BKM@entry{id=39,dest={73756273656374696F6E2E362E312E34},srcline={164}}{4B6F6E7A65707420665C33373472204175736E61686D65626568616E646C756E67}
\BKM@entry{id=40,dest={73756273656374696F6E2E362E312E35},srcline={170}}{53696368657268656974736B6F6E7A657074}
\BKM@entry{id=41,dest={73756273656374696F6E2E362E312E36},srcline={178}}{44657369676E206465722054657374756D676562756E67}
\@writefile{toc}{\contentsline {subsection}{\numberline {6.1.2}Benutzerschnittstellen}{25}{subsection.6.1.2}\protected@file@percent }
\@writefile{toc}{\contentsline {subsection}{\numberline {6.1.3}Datenhaltunskonzept}{25}{subsection.6.1.3}\protected@file@percent }
\@writefile{toc}{\contentsline {subsection}{\numberline {6.1.4}Konzept für Ausnahmebehandlung}{25}{subsection.6.1.4}\protected@file@percent }
\@writefile{toc}{\contentsline {subsection}{\numberline {6.1.5}Sicherheitskonzept}{25}{subsection.6.1.5}\protected@file@percent }
\BKM@entry{id=42,dest={73756273656374696F6E2E362E312E37},srcline={185}}{446573696E672064657220417573665C3337346872756E6773756D676562756E67}
\BKM@entry{id=43,dest={73656374696F6E2E362E32},srcline={191}}{44657461696C656E7477757266}
\@writefile{toc}{\contentsline {subsection}{\numberline {6.1.6}Design der Testumgebung}{26}{subsection.6.1.6}\protected@file@percent }
\@writefile{toc}{\contentsline {subsection}{\numberline {6.1.7}Desing der Ausführungsumgebung}{26}{subsection.6.1.7}\protected@file@percent }
\@writefile{toc}{\contentsline {section}{\numberline {6.2}Detailentwurf}{26}{section.6.2}\protected@file@percent }
\BKM@entry{id=44,dest={636861707465722E37},srcline={228}}{496D706C656D656E74696572756E67}
\@writefile{toc}{\contentsline {chapter}{\numberline {7}Implementierung}{28}{chapter.7}\protected@file@percent }
\@writefile{lof}{\addvspace {10\p@ }}
\@writefile{lot}{\addvspace {10\p@ }}
\@writefile{lol}{\addvspace {10\p@ }}
\BKM@entry{id=45,dest={636861707465722E38},srcline={251}}{4465706C6F796D656E74}
\@writefile{toc}{\contentsline {chapter}{\numberline {8}Deployment}{29}{chapter.8}\protected@file@percent }
\@writefile{lof}{\addvspace {10\p@ }}
\@writefile{lot}{\addvspace {10\p@ }}
\@writefile{lol}{\addvspace {10\p@ }}
\BKM@entry{id=46,dest={636861707465722E39},srcline={258}}{5465737473}
\BKM@entry{id=47,dest={73656374696F6E2E392E31},srcline={260}}{53797374656D7465737473}
\BKM@entry{id=48,dest={73656374696F6E2E392E32},srcline={270}}{416B7A657074616E7A7465737473}
\@writefile{toc}{\contentsline {chapter}{\numberline {9}Tests}{30}{chapter.9}\protected@file@percent }
\@writefile{lof}{\addvspace {10\p@ }}
\@writefile{lot}{\addvspace {10\p@ }}
\@writefile{lol}{\addvspace {10\p@ }}
\@writefile{toc}{\contentsline {section}{\numberline {9.1}Systemtests}{30}{section.9.1}\protected@file@percent }
\@writefile{toc}{\contentsline {section}{\numberline {9.2}Akzeptanztests}{30}{section.9.2}\protected@file@percent }
\BKM@entry{id=49,dest={636861707465722E3130},srcline={272}}{50726F6A656B746576616C756174696F6E}
\@writefile{toc}{\contentsline {chapter}{\numberline {10}Projektevaluation}{31}{chapter.10}\protected@file@percent }
\@writefile{lof}{\addvspace {10\p@ }}
\@writefile{lot}{\addvspace {10\p@ }}
\@writefile{lol}{\addvspace {10\p@ }}
\BKM@entry{id=50,dest={636861707465722E3131},srcline={275}}{42656E75747A657268616E6462756368}
\@writefile{toc}{\contentsline {chapter}{\numberline {11}Benutzerhandbuch}{32}{chapter.11}\protected@file@percent }
\@writefile{lof}{\addvspace {10\p@ }}
\@writefile{lot}{\addvspace {10\p@ }}
\@writefile{lol}{\addvspace {10\p@ }}
\BKM@entry{id=51,dest={636861707465722E3132},srcline={278}}{4265747269656273776972747363686166746C6963686572204B6F6E74657874}
\@writefile{toc}{\contentsline {chapter}{\numberline {12}Betriebswirtschaftlicher Kontext}{33}{chapter.12}\protected@file@percent }
\@writefile{lof}{\addvspace {10\p@ }}
\@writefile{lot}{\addvspace {10\p@ }}
\@writefile{lol}{\addvspace {10\p@ }}
\BKM@entry{id=52,dest={636861707465722E3133},srcline={281}}{5A7573616D6D656E66617373756E67}
\@writefile{toc}{\contentsline {chapter}{\numberline {13}Zusammenfassung}{34}{chapter.13}\protected@file@percent }
\@writefile{lof}{\addvspace {10\p@ }}
\@writefile{lot}{\addvspace {10\p@ }}
\@writefile{lol}{\addvspace {10\p@ }}
\BKM@entry{id=53,dest={636861707465722E3134},srcline={1}}{426569737069656C6B61706974656C}
\BKM@entry{id=54,dest={73656374696F6E2E31342E31},srcline={2}}{426569737069656C65207A6974696572656E}
\citation{resnick_distributed_1996}
\citation{harel_situating_1991}
\citation{resnick_distributed_1996}
\citation{anastopoulou_constructionism_2012}
\citation{beer_rudolf_aspekte_2011}
\citation{ackermann_piagets_2001}
\@writefile{toc}{\contentsline {chapter}{\numberline {14}Beispielkapitel}{35}{chapter.14}\protected@file@percent }
\@writefile{lof}{\addvspace {10\p@ }}
\@writefile{lot}{\addvspace {10\p@ }}
\@writefile{lol}{\addvspace {10\p@ }}
\@writefile{toc}{\contentsline {section}{\numberline {14.1}Beispiele zitieren}{35}{section.14.1}\protected@file@percent }
\citation{gohlich_lernen:_2007}
\BKM@entry{id=55,dest={73756273656374696F6E2E31342E312E31},srcline={25}}{426569737069656C6520416262696C64756E67656E}
\@writefile{toc}{\contentsline {subsection}{\numberline {14.1.1}Beispiele Abbildungen}{36}{subsection.14.1.1}\protected@file@percent }
\BKM@entry{id=56,dest={73656374696F6E2E31342E32},srcline={74}}{426569737069656C65204C697374656E}
\@writefile{lof}{\contentsline {figure}{\numberline {14.1}{\ignorespaces Arduino mit Lichtsensor und Lichterkette}}{37}{figure.caption.23}\protected@file@percent }
\providecommand*\caption@xref[2]{\@setref\relax\@undefined{#1}}
\newlabel{fig:ArduExample}{{14.1}{37}{Arduino mit Lichtsensor und Lichterkette}{figure.caption.23}{}}
\newlabel{fig:ArduExample@cref}{{[figure][1][14]14.1}{[1][36][]37}}
\@writefile{toc}{\contentsline {subsubsection}{\nonumberline Beispiele Tabellen}{37}{section*.24}\protected@file@percent }
\@writefile{toc}{\contentsline {section}{\numberline {14.2}Beispiele Listen}{37}{section.14.2}\protected@file@percent }
\@writefile{lot}{\contentsline {table}{\numberline {14.1}{\ignorespaces Aufwändige Tabelle mit Abbildung und Caption\relax }}{38}{table.caption.25}\protected@file@percent }
\newlabel{tbl:shiftReg}{{14.1}{38}{Aufwändige Tabelle mit Abbildung und Caption\relax }{table.caption.25}{}}
\newlabel{tbl:shiftReg@cref}{{[table][1][14]14.1}{[1][36][]38}}
\BKM@entry{id=57,dest={73656374696F6E2E31342E33},srcline={106}}{426569737069656C20436F646573657175656E7A}
\BKM@entry{id=58,dest={73756273656374696F6E2E31342E332E31},srcline={111}}{517569636B736F727420696E204A415641}
\@writefile{toc}{\contentsline {section}{\numberline {14.3}Beispiel Codesequenz}{39}{section.14.3}\protected@file@percent }
\@writefile{toc}{\contentsline {subsection}{\numberline {14.3.1}Quicksort in JAVA}{39}{subsection.14.3.1}\protected@file@percent }
\newlabel{code:qj}{{14.1}{39}{QuickSort in Java}{lstlisting.14.1}{}}
\newlabel{code:qj@cref}{{[listing][1][14]14.1}{[1][39][]39}}
\@writefile{lol}{\contentsline {lstlisting}{\numberline {14.1}QuickSort in Java}{39}{lstlisting.14.1}\protected@file@percent }
\BKM@entry{id=59,dest={73656374696F6E2E31342E34},srcline={166}}{426569737069656C74657874}
\@writefile{toc}{\contentsline {section}{\numberline {14.4}Beispieltext}{41}{section.14.4}\protected@file@percent }
\bibstyle{dinat}
\bibdata{Literatur_Verzeichnis}
\BKM@entry{id=60,dest={636861707465722A2E3237},srcline={1}}{4C69746572617475727665727A656963686E6973}
\bibcite{ackermann_piagets_2001}{{1}{2001}{{Ackermann}}{{}}}
\bibcite{anastopoulou_constructionism_2012}{{2}{2012}{{Anastopoulou u.\tmspace  +\thinmuskip {.1667em}a.}}{{Anastopoulou, Berland, Frant, Boytchev, Brennan, Chronaki, Clayson, Correia, Dagiene und Dekoli}}}
\bibcite{beer_rudolf_aspekte_2011}{{3}{2011}{{{Beer, Rudolf} und {Benischek, Isabella}}}{{}}}
\bibcite{gohlich_lernen:_2007}{{4}{2007}{{Göhlich und Zirfas}}{{}}}
\bibcite{harel_situating_1991}{{5}{1991}{{Harel und Papert}}{{}}}
\@writefile{toc}{\contentsline {chapter}{\nonumberline Literaturverzeichnis}{44}{chapter*.27}\protected@file@percent }
\@writefile{lof}{\addvspace {10\p@ }}
\@writefile{lot}{\addvspace {10\p@ }}
\@writefile{lol}{\addvspace {10\p@ }}
\bibcite{resnick_distributed_1996}{{6}{1996}{{Resnick}}{{}}}
\BKM@entry{id=61,dest={617070656E6469782E41},srcline={1}}{416E68616E672D4B61706974656C}
\BKM@entry{id=62,dest={73656374696F6E2E412E31},srcline={2}}{416E68616E672D53656374696F6E}
\@writefile{toc}{\contentsline {chapter}{\numberline {A}Anhang-Kapitel}{46}{appendix.A}\protected@file@percent }
\@writefile{lof}{\addvspace {10\p@ }}
\@writefile{lot}{\addvspace {10\p@ }}
\@writefile{lol}{\addvspace {10\p@ }}
\@writefile{toc}{\contentsline {section}{\numberline {A.1}Anhang-Section}{46}{section.A.1}\protected@file@percent }
\global\csname @altsecnumformattrue\endcsname
\global\@namedef{scr@dte@chapter@lastmaxnumwidth}{22.14648pt}
\global\@namedef{scr@dte@section@lastmaxnumwidth}{28.8528pt}
\global\@namedef{scr@dte@subsection@lastmaxnumwidth}{37.99178pt}
\global\@namedef{scr@dte@table@lastmaxnumwidth}{28.8528pt}
\global\@namedef{scr@dte@figure@lastmaxnumwidth}{28.8528pt}
